…
# stacking to make data long
julia> long = df_transpose(wide, 3:5, [:id, :a],
                           variable_name = "variable",
                           renamecolid = x->"value")
18×4 DataFrame
 Row │ id     a      variable  value    
     │ Int64  Int64  String    Float64
─────┼──────────────────────────────────
   1 │     1      1  b              1.0
   2 │     1      1  c              1.0
   3 │     1      1  d              1.0
   4 │     2      1  b              1.0
   5 │     2      1  c              1.0
   6 │     2      1  d              1.0
   7 │     3      2  b              1.0
   ⋮ │   ⋮      ⋮       ⋮         ⋮
  12 │     4      2  d              2.0
  13 │     5      3  b              2.0
  14 │     5      3  c              1.0
  15 │     5      3  d              3.0
  16 │     6      3  b              2.0
  17 │     6      3  c              1.0
  18 │     6      3  d              3.0
                          4 rows omitted
…
